<svg width="20" height="20" viewBox="0 0 20 20" fill="none" xmlns="http://www.w3.org/2000/svg">
<path fill-rule="evenodd" clip-rule="evenodd" d="M15.011 12.6014C15.425 12.6014 15.761 12.2654 15.761 11.8514V9.99944C15.761 9.58544 15.425 9.24944 15.011 9.24944H9.31899C8.99499 8.18244 8.01299 7.39844 6.84099 7.39844C5.40699 7.39844 4.23999 8.56544 4.23999 9.99944C4.23999 11.4344 5.40699 12.6014 6.84099 12.6014C8.01299 12.6014 8.99499 11.8174 9.31899 10.7494H11.431V11.8514C11.431 12.2654 11.767 12.6014 12.181 12.6014C12.595 12.6014 12.931 12.2654 12.931 11.8514V10.7494H14.261V11.8514C14.261 12.2654 14.597 12.6014 15.011 12.6014ZM5.66576 0H14.3348C17.7228 0 19.9998 2.378 19.9998 5.917V14.084C19.9998 17.623 17.7228 20 14.3338 20H5.66576C2.27676 20 -0.000244141 17.623 -0.000244141 14.084V5.917C-0.000244141 2.378 2.27676 0 5.66576 0ZM5.73886 10.0009C5.73886 9.3929 6.23386 8.8989 6.84086 8.8989C7.44786 8.8989 7.94286 9.3929 7.94286 10.0009C7.94286 10.6079 7.44786 11.1019 6.84086 11.1019C6.23386 11.1019 5.73886 10.6079 5.73886 10.0009Z" fill="url(#paint0_linear)"/>
<defs>
<linearGradient id="paint0_linear" x1="9.99976" y1="0" x2="9.99976" y2="20" gradientUnits="userSpaceOnUse">
<stop stop-color="#97EB0E"/>
<stop offset="1" stop-color="#19B90B"/>
</linearGradient>
</defs>
</svg>
